Introduction to R and R Studio
…
dat1 %>% tail()

## # A tibble: 6 x 7
##    ...1 gen   trial env   yield  year loc     
##   <dbl> <chr> <chr> <chr> <dbl> <dbl> <chr>   
## 1   284 G23   T2    E13    1311  2005 Melkassa
## 2   285 G24   T2    E13    1269  2005 Melkassa
## 3   286 G25   T2    E13    1689  2005 Melkassa
## 4   287 G26   T2    E13    1578  2005 Melkassa
## 5   288 G27   T2    E13    2038  2005 Melkassa
## 6   289 G28   T2    E13    1967  2005 Melkassa

print(dat1)

## # A tibble: 289 x 7
##     ...1 gen   trial env   yield  year loc  
##    <dbl> <chr> <chr> <chr> <dbl> <dbl> <chr>
##  1     1 G16   T2    E01     590  2001 Mieso
##  2     2 G17   T2    E01     554  2001 Mieso
##  3     3 G18   T2    E01     586  2001 Mieso
##  4     4 G19   T2    E01     738  2001 Mieso
##  5     5 G20   T2    E01     489  2001 Mieso
##  6     6 G21   T2    E01     684  2001 Mieso
##  7     7 G22   T2    E01     555  2001 Mieso
##  8     8 G23   T2    E01    1025  2001 Mieso
##  9     9 G24   T2    E01     493  2001 Mieso
## 10    10 G25   T2    E01     691  2001 Mieso
## # ... with 279 more rows
…
